{
  "name": "CreateCase",
  "base": "PersistedModel",
  "idInjection": true,
  "options": {
    "validateUpsert": true
  },
  "properties": {
    "caseDetails": {
      "type": "string"
    },
    "caseNumber": {
      "type": "string"
    },
    "caseType": {
      "type": "string"
    },
    "status": {
      "type": "string"
    },
    "priority": {
      "type": "string"
    },
    "act": {
      "type": "string"
    },
    "stakeHolder": {
      "type": "string"
    },
    "department": {
      "type": "string"
    },
    "courtName": {
      "type": "string"
    },
    "caseDate": {
      "type": "string"
    },
    "empannel": {
      "type": "string"
    }
  },
  "validations": [],
  "relations": {},
  "acls": [
    {
      "accessType": "*",
      "principalType": "ROLE",
      "principalId": "$everyone",
      "permission": "DENY"
    },
    {
      "accessType": "*",
      "principalType": "ROLE",
      "principalId": "$authenticated",
      "permission": "ALLOW"
    }
  ],
  "methods": {}
}
